2018-05-22T00:00:00.160000 startup de0272bfb52c3d95 foober shared86 2.7.11 /opt/scitools/environments/production/2018_01_31/bin/python
2018-05-21T23:59:58.190000 startup cd520b97fac3af35 foobar expspicesrv027 2.7.12 /spice/project/scitools/opt_scitools/environments/default/2018_05_03/bin/python
2018-05-22T00:00:01.370000 startup e76bc7df2fa9d80e bazbar els030 2.7.6 /usr/local/sci/bin/python2.7
